{
  "serviceName" : "authentication",
  "database": "hbase",
  "fields":[
    {"name":"username","type":"string","unique":"true","mandatory":"true","pattern":"","description":"","enum":["a","c",""],"allowNull":"false"},
    {"name":"password","type":"string","unique":"false","mandatory":"true","pattern":"","description":"","enum":"" ,"allowNull":"true"},
    {"name":"mobile","type":"string","unique":"false","mandatory":"true","pattern":"","description":"","enum":""},
    {"name":"role","type":"list","unique":"false","mandatory":"true","pattern":"","description":"","enum":["senior admin", "super admin", "jdksjdkj","admin"],"allowNull":"true"},
    {"name":"lastlogin","type":"string","unique":"false","mandatory":"false","pattern":"","description":"","enum":"","allowNull":"true"},
    {"name":"loginip","type":"string","unique":"false","mandatory":"false","pattern":"","description":"","enum":"","allowNull":"true"},
    {"name":"test","type":"object","unique":"false","mandatory":"false","pattern":"","description":"","enum":[
      {"name":"username1","type":"string","unique":"true","mandatory":"true","pattern":"","description":"","enum":""},
      {"name":"password","type":"string","unique":"false","mandatory":"true","pattern":"","description":"","enum":""},
      {"name":"mobile","type":"object","unique":"false","mandatory":"true","pattern":"","description":"","enum":[
        {"name":"username","type":"string","unique":"true","mandatory":"true","pattern":"","description":"","enum":""},
        {"name":"password","type":"string","unique":"false","mandatory":"true","pattern":"","description":"","enum":""},
        {"name":"mobile","type":"string","unique":"false","mandatory":"true","pattern":"","description":"","enum":""},
        {"name":"role","type":"list","unique":"false","mandatory":"true","pattern":"","description":"","enum":[" system_admin","admin","user"]},
        {"name":"lastlogin","type":"string","unique":"false","mandatory":"false","pattern":"","description":"","enum":""},
        {"name":"loginip","type":"string","unique":"false","mandatory":"false","pattern":"","description":"","enum":""}
      ]},
      {"name":"role","type":"list","unique":"false","mandatory":"true","pattern":"","description":"","enum":["senior admin", "super admin", "jdksjdkj","admin"]},
      {"name":"lastlogin","type":"string","unique":"false","mandatory":"false","pattern":"","description":"","enum":""},
      {"name":"loginip","type":"string","unique":"false","mandatory":"false","pattern":"","description":"","enum":""}
    ],"allowNull":"true"},
    {"name":"testing","type":"numeric","unique":"true","mandatory":"true","searchable":"true","pattern":"","description":"","enum":"","allowNull":"true"},
    {"name":"customValue","type":"object","unique":"false","mandatory":"false","searchable":"true","pattern":"","description":"","enum":"","allowNull":"true"},
    {"name":"mylist","type":"list","unique":"false","mandatory":"false","searchable":"true","pattern":"","description":"","enum":"","allowNull":"true"}

  ],
  "systemConfiguration":{},
  "host":"localhost",
  "port":"4567",
  "logpath":"/var/www",
  "connectionsetup":{"sitepath":"/usr/lib/hbase/conf/hbase-site.xml","sitepolicy":"/usr/lib/hbase/conf/hbase-policy.xml"}
}